…
The tidyverse library is an extensive collection of different libraries used commonly in statistical work. In this study, we will be using primarily the dplyr library and the ggplot2 library, both part of the tidyverse collection. The dplyr library is a useful collection that allows us to clean the dataset. We can subset variables using the select function, create new columns using the mutate function, rename column names from their original titles in the GSS survey to more appropriate and descriptive names with the rename function, and group row operations using rowwise. The ggplot2 library allows us to map out our models with a variety of different options, in this study we will be only using a scatterplot using geom_point. \(\\\)

The janitor library

Data

## 
## ── Column specification ────────────────────────────────────────────────────────
## cols(
##   .default = col_double()
## )
## ℹ Use `spec()` for the full column specifications.

## # A tibble: 66 x 12
##    case_id age   sex   income_12months   BMI age_first_diagn… height weight
##      <dbl> <chr> <chr> <chr>           <dbl>            <dbl>  <dbl>  <dbl>
##  1    1809 60 t… Male  $10,000 to 14,…  25.6               55    180     83
##  2    2014 45 t… Fema… $20,000 to 29,…  26.4                1    152     61
##  3    2136 35 t… Male  $40,000 to 59,…  34.9               14    175    107
##  4    2833 40 t… Male  $20,000 to 29,…  30.5               25    168     86
##  5    3193 40 t… Male  $40,000 to 59,…  23.9               11    183     80
##  6    4341 45 t… Fema… $20,000 to 29,…  25                 24    160     64
##  7    4585 50 t… Male  $40,000 to 59,…  24.6               42    178     78
##  8    5540 60 t… Male  $5,000 to 9,999  26.7               45    163     71
##  9    6078 35 t… Fema… Less than $5,0…  26                  4    157     64
## 10    6163 50 t… Fema… $5,000 to 9,999  30.1               50    160     77
## # … with 56 more rows, and 4 more variables: sleep_hours <dbl>, j3 <dbl>,
## #   average_drink_for_12_months <chr>, work_hours_per_week <dbl>
…
