…
The tidyverse library is an extensive collection of different libraries used commonly in statistical work. In this study, we will be using primarily the dplyr library and the ggplot2 library, both part of the tidyverse collection. The dplyr library is a useful collection that allows us to clean the dataset. We can subset variables using the select function, create new columns using the mutate function, rename column names from their original titles in the GSS survey to more appropriate and descriptive names with the rename function, and group row operations using rowwise. The ggplot2 library allows us to map out our models with a variety of different options, in this study we will be only using a scatterplot using geom_point. \(\\\)

The janitor library

Data

## 
## ── Column specification ────────────────────────────────────────────────────────
## cols(
##   .default = col_double()
## )
## ℹ Use `spec()` for the full column specifications.

## # A tibble: 23 x 13
## # Rowwise: 
##    case_id   age   sex personal_income…   BMI age_first_diagn… height weight
##      <dbl> <dbl> <dbl>            <dbl> <dbl>            <dbl>  <dbl>  <dbl>
##  1    2136     6     1                8  34.9               14    175    107
##  2    3193     7     1                8  23.9               11    183     80
##  3    4341     8     2                6  25                 24    160     64
##  4    4344     9     1               10  28.4               38    170     82
##  5    4464     7     2                6  36.4               30    152     84
##  6    4585     9     1                8  24.6               42    178     78
##  7    6163     9     2                3  30.1               50    160     77
##  8    7694     4     1                8  21.6                6    168     61
##  9   11244    11     1                4  26                 50    170     75
## 10   11270     4     1                6  26.2                2    180     85
## # … with 13 more rows, and 5 more variables: sleep_hours <dbl>,
## #   cigarettes_smoke_per_day <dbl>, average_drink_for_12_months <dbl>,
## #   work_hours_per_week <dbl>, nightshift_frequency <dbl>
