…
Abstract

Out paper is designed to look at the effects of work and lifestyle on the age at which the recipients of the General Social Survey (GSS) are diagnosed with diabetes. Our model will look at a select few variables and attempt to create regression models based on these variables to predict the age at which someone will be diagnosed with diabetes. We have found that individuals who are have longer sleep hours are more likely to be diagnosed with diabetes at an earlier age, and shorter working hours tend to correlate with a earlier diagnoses as well. However, income levels and alcohol consumption on the other hand do not appear to affect the age of diagnosis of diabetes.

Introduction

According to the World Health Organization (2020), diabetes is quickly on the rise with 422 million people diagnosed with the condition in 2014, up from 108 million in 1980. Adults with diabetes are more likely to be at risk of heart attacks and strokes, and if conditions worsen, could lead to limb amputations and blindness. (WHO, 2020) Diabetes sits as the 9th deadliest illness in the world at a staggering death toll of 1.37 million in 2017, that is more than HIV/AIDS and malaria! (Ritchie, 2018)

Currently, diabetes is tested and diagnosed through blood sugar tests, and can be treated through regular monitoring of blood sugar, medication, healthy diet, and regular exercise (Mayo Clinic, 2020). Therefore, it is imperative that individuals are properly tested for diabetes as soon as possible to avoid worsening conditions. Our study is to establish any correlations between the hours of sleep, working hours, income levels, and alcohol consumption to better predict the age of diagnosis of diabetes. Do individuals with shorter sleep hours tend to be diagnosed with diabetes earlier than individuals who sleep longer? Does alcohol consumption have an effect on the age of diagnosis. Our study will attempt to answer those questions.

Lastly, I will be mentioning the R libraries used to clean and model our data. The tidyverse library is an extensive collection of different libraries used commonly in statistical work. In this study, we will be using primarily the dplyr library and the ggplot2 library, both part of the tidyverse collection. The dplyr library is a useful collection that allows us to clean the dataset. We can subset variables using the select function, create new columns using the mutate function, rename column names from their original titles in the GSS survey to more appropriate and descriptive names with the rename function, and group row operations using rowwise. The ggplot2 library allows us to map out our models with a variety of different options, in this study we will be only using a scatterplot using geom_point. Additionally, the janitor library will be used for the clean_names function, which will help us return names in lowercase form, and substitute spaces with underscores.

Data

## # A tibble: 66 x 6
##    case_id income_12months age_first_diagn… sleep_hours average_drink_f…
##      <dbl> <chr>                      <dbl>       <dbl> <chr>           
##  1    1809 $10,000 to 14,…               55           6 Once or twice a…
##  2    2014 $20,000 to 29,…                1           7 Less often than…
##  3    2136 $40,000 to 59,…               14           7 2 - 3 times a w…
##  4    2833 $20,000 to 29,…               25           7 2 - 3 times a w…
##  5    3193 $40,000 to 59,…               11           8 Once a week     
##  6    4341 $20,000 to 29,…               24           8 Once a week     
##  7    4585 $40,000 to 59,…               42           6 Once a week     
##  8    5540 $5,000 to 9,999               45           6 Once or twice a…
##  9    6078 Less than $5,0…                4           8 Less often than…
## 10    6163 $5,000 to 9,999               50           7 Once a week     
## # … with 56 more rows, and 1 more variable: work_hours_per_week <dbl>
…
